{
  "action_manifest_version": 0,
  "alias_info": {},
  "app_key": "system.generated.openvr-test-runner",
  "bindings": {
    "/actions/main": {
      "sources": [
        {
          "path": "/user/hand/left/input/x",
          "mode": "button",
          "inputs": {
            "click": {
              "output": "/actions/main/in/openinventory"
            }
          }
        }
      ]
    },
    "/actions/single_sided": {
      "poses": [
        {
          "output": "/actions/single_sided/in/hand_pose",
          "path": "/user/hand/left/pose/raw"
        },
        {
          "output": "/actions/single_sided/in/hand_pose",
          "path": "/user/hand/right/pose/raw"
        }
      ]
    }
  },
  "category": "steamvr_input",
  "controller_type": "oculus_touch",
  "description": "",
  "name": "Testsuite for SimpleController"
}
